<svg width="20" height="21" viewBox="0 0 20 21" fill="none" xmlns="http://www.w3.org/2000/svg">
<path opacity="0.8" d="M10 0.8125C4.64844 0.8125 0.3125 5.1875 0.3125 10.5C0.3125 15.8516 4.64844 20.1875 10 20.1875C15.3125 20.1875 19.6875 15.8516 19.6875 10.5C19.6875 5.1875 15.3125 0.8125 10 0.8125ZM10 18.3125C5.66406 18.3125 2.1875 14.8359 2.1875 10.5C2.1875 6.20312 5.66406 2.6875 10 2.6875C14.2969 2.6875 17.8125 6.20312 17.8125 10.5C17.8125 14.8359 14.2969 18.3125 10 18.3125ZM14.1797 8.35156C14.1797 6.39844 12.1094 4.875 10.1953 4.875C8.35938 4.875 7.1875 5.65625 6.28906 7.02344C6.13281 7.21875 6.17188 7.49219 6.36719 7.64844L7.46094 8.46875C7.65625 8.625 7.96875 8.58594 8.125 8.39062C8.71094 7.64844 9.14062 7.21875 10.0391 7.21875C10.7422 7.21875 11.6016 7.64844 11.6016 8.35156C11.6016 8.85938 11.1719 9.09375 10.4688 9.48438C9.6875 9.95312 8.63281 10.5 8.63281 11.9062V12.2188C8.63281 12.4922 8.82812 12.6875 9.10156 12.6875H10.8594C11.1328 12.6875 11.3281 12.4922 11.3281 12.2188V11.9844C11.3281 11.0078 14.1797 10.9688 14.1797 8.35156ZM11.6406 14.875C11.6406 13.9766 10.8984 13.2344 10 13.2344C9.0625 13.2344 8.35938 13.9766 8.35938 14.875C8.35938 15.8125 9.0625 16.5156 10 16.5156C10.8984 16.5156 11.6406 15.8125 11.6406 14.875Z" fill="#302B2B" fill-opacity="0.4"/>
</svg>
