<svg width="45" height="35" viewBox="0 0 45 35" fill="none" xmlns="http://www.w3.org/2000/svg">
<path d="M19.6875 12C19.9688 12 20.25 11.7891 20.25 11.4375V10.3125C20.25 10.0312 19.9688 9.75 19.6875 9.75H2.8125C2.46094 9.75 2.25 10.0312 2.25 10.3125V11.4375C2.25 11.7891 2.46094 12 2.8125 12H19.6875ZM44.4375 25.5H42.75V17.9062C42.75 16.7812 42.2578 15.5859 41.4141 14.7422L35.5078 8.83594C34.6641 7.99219 33.5391 7.5 32.3438 7.5H29.25V4.05469C29.25 2.22656 27.6328 0.75 25.7344 0.75H7.94531C6.04688 0.75 4.5 2.22656 4.5 4.05469V5.25H0.5625C0.210938 5.25 0 5.53125 0 5.8125V6.9375C0 7.28906 0.210938 7.5 0.5625 7.5H17.4375C17.7188 7.5 18 7.28906 18 6.9375V5.8125C18 5.53125 17.7188 5.25 17.4375 5.25H6.75V4.05469C6.75 3.49219 7.24219 3 7.94531 3H25.7344C26.4375 3 27 3.49219 27 4.05469V25.5H14.5547C13.5703 24.1641 11.9531 23.25 10.125 23.25C8.78906 23.25 7.66406 23.7422 6.75 24.4453V18.75H4.5V28.875C4.5 32.0391 6.96094 34.5 10.125 34.5C13.2188 34.5 15.75 32.0391 15.75 28.875C15.75 28.5234 15.6797 28.1719 15.6094 27.75H29.3203C29.25 28.1719 29.25 28.5234 29.25 28.875C29.25 32.0391 31.7109 34.5 34.875 34.5C37.9688 34.5 40.5 32.0391 40.5 28.875C40.5 28.5234 40.4297 28.1719 40.3594 27.75H44.4375C44.7188 27.75 45 27.5391 45 27.1875V26.0625C45 25.7812 44.7188 25.5 44.4375 25.5ZM10.125 32.25C8.22656 32.25 6.75 30.7734 6.75 28.875C6.75 27.0469 8.22656 25.5 10.125 25.5C11.9531 25.5 13.5 27.0469 13.5 28.875C13.5 30.7734 11.9531 32.25 10.125 32.25ZM29.25 9.75H32.3438C32.9062 9.75 33.4688 10.0312 33.8906 10.4531L39.7969 16.3594C39.8672 16.4297 39.8672 16.5 39.9375 16.5703H29.25V9.75ZM34.875 32.25C32.9766 32.25 31.5 30.7734 31.5 28.875C31.5 27.0469 32.9766 25.5 34.875 25.5C36.7031 25.5 38.25 27.0469 38.25 28.875C38.25 30.7734 36.7031 32.25 34.875 32.25ZM40.5 25.5H39.3047C38.3203 24.1641 36.7031 23.25 34.875 23.25C33.0469 23.25 31.4297 24.1641 30.375 25.5H29.25V18.75H40.5V25.5ZM18 15.9375V14.8125C18 14.5312 17.7188 14.25 17.4375 14.25H0.5625C0.210938 14.25 0 14.5312 0 14.8125V15.9375C0 16.2891 0.210938 16.5 0.5625 16.5H17.4375C17.7188 16.5 18 16.2891 18 15.9375Z" fill="#302B2B"/>
</svg>
